{
    "prepare_queue": {
        "installed": [],
        "uninstalled": []
    },
    "config_munge": {
        "files": {
            "res/xml/config.xml": {
                "parents": {
                    "/*": [
                        {
                            "xml": "<feature name=\"Device\"><param name=\"android-package\" value=\"org.apache.cordova.device.Device\" /></feature>",
                            "count": 1
                        },
                        {
                            "xml": "<feature name=\"Notification\"><param name=\"android-package\" value=\"org.apache.cordova.dialogs.Notification\" /></feature>",
                            "count": 1
                        },
                        {
                            "xml": "<feature name=\"Whitelist\"><param name=\"android-package\" value=\"org.apache.cordova.whitelist.WhitelistPlugin\" /><param name=\"onload\" value=\"true\" /></feature>",
                            "count": 1
                        },
                        {
                            "xml": "<feature name=\"CDVOrientation\"><param name=\"android-package\" value=\"cordova.plugins.screenorientation.CDVOrientation\" /></feature>",
                            "count": 1
                        },
                        {
                            "xml": "<feature name=\"SocketsForCordova\"><param name=\"android-package\" value=\"cz.blocshop.socketsforcordova.SocketPlugin\" /></feature>",
                            "count": 1
                        },
                        {
                            "xml": "<feature name=\"Toast\"><param name=\"android-package\" value=\"nl.xservices.plugins.Toast\" /></feature>",
                            "count": 1
                        }
                    ]
                }
            },
            "AndroidManifest.xml": {
                "parents": {
                    "/manifest": [
                        {
                            "xml": "<uses-permission android:name=\"android.permission.INTERNET\" />",
                            "count": 1
                        }
                    ]
                }
            }
        }
    },
    "installed_plugins": {
        "cordova-plugin-device": {
            "PACKAGE_NAME": "com.coolappz.Controller"
        },
        "cordova-plugin-dialogs": {
            "PACKAGE_NAME": "com.coolappz.Controller"
        },
        "cordova-plugin-whitelist": {
            "PACKAGE_NAME": "com.coolappz.Controller"
        },
        "es6-promise-plugin": {
            "PACKAGE_NAME": "com.coolappz.Controller"
        },
        "cordova-plugin-screen-orientation": {
            "PACKAGE_NAME": "com.coolappz.Controller"
        },
        "cz.blocshop.socketsforcordova": {
            "PACKAGE_NAME": "com.coolappz.Controller"
        },
        "cordova-plugin-x-toast": {
            "PACKAGE_NAME": "com.coolappz.Controller"
        }
    },
    "dependent_plugins": {},
    "modules": [
        {
            "id": "cordova-plugin-device.device",
            "file": "plugins/cordova-plugin-device/www/device.js",
            "pluginId": "cordova-plugin-device",
            "clobbers": [
                "device"
            ]
        },
        {
            "id": "cordova-plugin-dialogs.notification",
            "file": "plugins/cordova-plugin-dialogs/www/notification.js",
            "pluginId": "cordova-plugin-dialogs",
            "merges": [
                "navigator.notification"
            ]
        },
        {
            "id": "cordova-plugin-dialogs.notification_android",
            "file": "plugins/cordova-plugin-dialogs/www/android/notification.js",
            "pluginId": "cordova-plugin-dialogs",
            "merges": [
                "navigator.notification"
            ]
        },
        {
            "id": "es6-promise-plugin.Promise",
            "file": "plugins/es6-promise-plugin/www/promise.js",
            "pluginId": "es6-promise-plugin",
            "runs": true
        },
        {
            "id": "cordova-plugin-screen-orientation.screenorientation",
            "file": "plugins/cordova-plugin-screen-orientation/www/screenorientation.js",
            "pluginId": "cordova-plugin-screen-orientation",
            "clobbers": [
                "cordova.plugins.screenorientation"
            ]
        },
        {
            "id": "cz.blocshop.socketsforcordova.Socket",
            "file": "plugins/cz.blocshop.socketsforcordova/socket.js",
            "pluginId": "cz.blocshop.socketsforcordova",
            "clobbers": [
                "window.Socket"
            ]
        },
        {
            "id": "cordova-plugin-x-toast.Toast",
            "file": "plugins/cordova-plugin-x-toast/www/Toast.js",
            "pluginId": "cordova-plugin-x-toast",
            "clobbers": [
                "window.plugins.toast"
            ]
        }
    ],
    "plugin_metadata": {
        "cordova-plugin-device": "2.0.2",
        "cordova-plugin-dialogs": "2.0.1",
        "cordova-plugin-whitelist": "1.3.3",
        "es6-promise-plugin": "4.2.2",
        "cordova-plugin-screen-orientation": "3.0.1",
        "cz.blocshop.socketsforcordova": "1.1.0",
        "cordova-plugin-x-toast": "2.6.2"
    }
}