EESchema Schematic File Version 2
LIBS:power
LIBS:device
LIBS:transistors
LIBS:conn
LIBS:linear
LIBS:regul
LIBS:74xx
LIBS:cmos4000
LIBS:adc-dac
LIBS:memory
LIBS:xilinx
LIBS:microcontrollers
LIBS:dsp
LIBS:microchip
LIBS:analog_switches
LIBS:motorola
LIBS:texas
LIBS:intel
LIBS:audio
LIBS:interface
LIBS:digital-audio
LIBS:philips
LIBS:display
LIBS:cypress
LIBS:siliconi
LIBS:opto
LIBS:atmel
LIBS:contrib
LIBS:valves
LIBS:4xxx
LIBS:4xxx_IEEE
LIBS:74xGxx
LIBS:74xx_IEEE
LIBS:Amplifier_Audio
LIBS:Amplifier_Buffer
LIBS:Amplifier_Current
LIBS:Amplifier_Difference
LIBS:Amplifier_Instrumentation
LIBS:Amplifier_Operational
LIBS:Amplifier_Video
LIBS:Analog
LIBS:Analog_ADC
LIBS:Analog_DAC
LIBS:Analog_Switch
LIBS:Audio
LIBS:Battery_Management
LIBS:Comparator
LIBS:Connector
LIBS:Connector_Generic
LIBS:Connector_Generic_MountingPin
LIBS:Connector_Generic_Shielded
LIBS:Converter_ACDC
LIBS:Converter_DCDC
LIBS:CPLD_Altera
LIBS:CPLD_Xilinx
LIBS:CPU
LIBS:CPU_NXP_6800
LIBS:CPU_NXP_68000
LIBS:CPU_PowerPC
LIBS:Device
LIBS:Diode
LIBS:Diode_Bridge
LIBS:Diode_Laser
LIBS:Display_Character
LIBS:Display_Graphic
LIBS:Driver_Display
LIBS:Driver_FET
LIBS:Driver_LED
LIBS:Driver_Motor
LIBS:Driver_Relay
LIBS:DSP_Freescale
LIBS:DSP_Microchip_DSPIC33
LIBS:DSP_Motorola
LIBS:DSP_Texas
LIBS:Filter
LIBS:FPGA_Microsemi
LIBS:FPGA_Xilinx
LIBS:FPGA_Xilinx_Artix7
LIBS:FPGA_Xilinx_Kintex7
LIBS:FPGA_Xilinx_Spartan6
LIBS:FPGA_Xilinx_Virtex5
LIBS:FPGA_Xilinx_Virtex6
LIBS:FPGA_Xilinx_Virtex7
LIBS:GPU
LIBS:Graphic
LIBS:Interface
LIBS:Interface_CAN_LIN
LIBS:Interface_CurrentLoop
LIBS:Interface_Ethernet
LIBS:Interface_Expansion
LIBS:Interface_HID
LIBS:Interface_LineDriver
LIBS:Interface_Optical
LIBS:Interface_Telecom
LIBS:Interface_UART
LIBS:Interface_USB
LIBS:Isolator
LIBS:Isolator_Analog
LIBS:Jumper
LIBS:LED
LIBS:Logic_LevelTranslator
LIBS:Logic_Programmable
LIBS:MCU_AnalogDevices
LIBS:MCU_Cypress
LIBS:MCU_Espressif
LIBS:MCU_Intel
LIBS:MCU_Microchip_8051
LIBS:MCU_Microchip_ATmega
LIBS:MCU_Microchip_ATtiny
LIBS:MCU_Microchip_AVR
LIBS:MCU_Microchip_PIC10
LIBS:MCU_Microchip_PIC12
LIBS:MCU_Microchip_PIC16
LIBS:MCU_Microchip_PIC18
LIBS:MCU_Microchip_PIC24
LIBS:MCU_Microchip_PIC32
LIBS:MCU_Microchip_SAME
LIBS:MCU_Microchip_SAML
LIBS:MCU_Module
LIBS:MCU_Nordic
LIBS:MCU_NXP_ColdFire
LIBS:MCU_NXP_HC11
LIBS:MCU_NXP_HC12
LIBS:MCU_NXP_HCS12
LIBS:MCU_NXP_Kinetis
LIBS:MCU_NXP_LPC
LIBS:MCU_NXP_MAC7100
LIBS:MCU_NXP_MCore
LIBS:MCU_NXP_S08
LIBS:MCU_Parallax
LIBS:MCU_SiFive
LIBS:MCU_SiliconLabs
LIBS:MCU_ST_STM8
LIBS:MCU_ST_STM32F0
LIBS:MCU_ST_STM32F1
LIBS:MCU_ST_STM32F2
LIBS:MCU_ST_STM32F3
LIBS:MCU_ST_STM32F4
LIBS:MCU_ST_STM32F7
LIBS:MCU_ST_STM32H7
LIBS:MCU_ST_STM32L0
LIBS:MCU_ST_STM32L1
LIBS:MCU_ST_STM32L4
LIBS:MCU_ST_STM32L4+
LIBS:MCU_Texas
LIBS:MCU_Texas_MSP430
LIBS:Mechanical
LIBS:Memory_Controller
LIBS:Memory_EEPROM
LIBS:Memory_EPROM
LIBS:Memory_Flash
LIBS:Memory_NVRAM
LIBS:Memory_RAM
LIBS:Memory_ROM
LIBS:Memory_UniqueID
LIBS:Motor
LIBS:Oscillator
LIBS:Potentiometer_Digital
LIBS:Power_Management
LIBS:Power_Protection
LIBS:Power_Supervisor
LIBS:pspice
LIBS:Reference_Current
LIBS:Reference_Voltage
LIBS:Regulator_Controller
LIBS:Regulator_Current
LIBS:Regulator_Linear
LIBS:Regulator_SwitchedCapacitor
LIBS:Regulator_Switching
LIBS:Relay
LIBS:Relay_SolidState
LIBS:RF
LIBS:RF_AM_FM
LIBS:RF_Amplifier
LIBS:RF_Bluetooth
LIBS:RF_GPS
LIBS:RF_Mixer
LIBS:RF_Module
LIBS:RF_RFID
LIBS:RF_Switch
LIBS:RF_WiFi
LIBS:RF_ZigBee
LIBS:Sensor
LIBS:Sensor_Audio
LIBS:Sensor_Current
LIBS:Sensor_Gas
LIBS:Sensor_Humidity
LIBS:Sensor_Magnetic
LIBS:Sensor_Motion
LIBS:Sensor_Optical
LIBS:Sensor_Pressure
LIBS:Sensor_Proximity
LIBS:Sensor_Temperature
LIBS:Sensor_Touch
LIBS:Sensor_Voltage
LIBS:Switch
LIBS:Timer
LIBS:Timer_PLL
LIBS:Timer_RTC
LIBS:Transformer
LIBS:Transistor_Array
LIBS:Transistor_BJT
LIBS:Transistor_FET
LIBS:Transistor_IGBT
LIBS:Triac_Thyristor
LIBS:Valve
LIBS:Video
LIBS:mando-cache
EELAYER 25 0
EELAYER END
$Descr A4 11693 8268
encoding utf-8
Sheet 1 1
Title ""
Date ""
Rev ""
Comp ""
Comment1 ""
Comment2 ""
Comment3 ""
Comment4 ""
$EndDescr
$Comp
L ESP8266 U?
U 1 1 5B01F031
P 5600 2450
F 0 "U?" H 5350 2850 60  0000 C CNN
F 1 "ESP8266" H 5750 2900 60  0000 C CNN
F 2 "" H 5750 2900 60  0001 C CNN
F 3 "" H 5750 2900 60  0001 C CNN
	1    5600 2450
	1    0    0    -1  
$EndComp
$Comp
L R 4K7
U 1 1 5B026E12
P 2950 1850
F 0 "4K7" V 3030 1850 50  0000 C CNN
F 1 "R" V 2950 1850 50  0000 C CNN
F 2 "" V 2880 1850 50  0000 C CNN
F 3 "" H 2950 1850 50  0000 C CNN
	1    2950 1850
	1    0    0    -1  
$EndComp
$Comp
L 7805 U?
U 1 1 5B026E85
P 5400 1300
F 0 "U?" H 5550 1104 50  0000 C CNN
F 1 "7805" H 5400 1500 50  0000 C CNN
F 2 "" H 5400 1300 50  0000 C CNN
F 3 "" H 5400 1300 50  0000 C CNN
	1    5400 1300
	1    0    0    -1  
$EndComp
$Comp
L +BATT #PWR?
U 1 1 5B026EEA
P 5000 1250
F 0 "#PWR?" H 5000 1100 50  0001 C CNN
F 1 "+BATT" H 5000 1390 50  0000 C CNN
F 2 "" H 5000 1250 50  0000 C CNN
F 3 "" H 5000 1250 50  0000 C CNN
	1    5000 1250
	1    0    0    -1  
$EndComp
$Comp
L +5V #PWR?
U 1 1 5B026F04
P 5800 1250
F 0 "#PWR?" H 5800 1100 50  0001 C CNN
F 1 "+5V" H 5800 1390 50  0000 C CNN
F 2 "" H 5800 1250 50  0000 C CNN
F 3 "" H 5800 1250 50  0000 C CNN
	1    5800 1250
	1    0    0    -1  
$EndComp
$Comp
L GND #PWR?
U 1 1 5B026F23
P 5400 1550
F 0 "#PWR?" H 5400 1300 50  0001 C CNN
F 1 "GND" H 5400 1400 50  0000 C CNN
F 2 "" H 5400 1550 50  0000 C CNN
F 3 "" H 5400 1550 50  0000 C CNN
	1    5400 1550
	1    0    0    -1  
$EndComp
$Comp
L D 1N4007
U 1 1 5B0270C6
P 5950 1250
F 0 "1N4007" H 5950 1350 50  0000 C CNN
F 1 "D" H 5950 1150 50  0000 C CNN
F 2 "" H 5950 1250 50  0000 C CNN
F 3 "" H 5950 1250 50  0000 C CNN
	1    5950 1250
	-1   0    0    1   
$EndComp
$Comp
L +5VA #PWR?
U 1 1 5B02710D
P 6100 1250
F 0 "#PWR?" H 6100 1100 50  0001 C CNN
F 1 "+5VA" H 6100 1390 50  0000 C CNN
F 2 "" H 6100 1250 50  0000 C CNN
F 3 "" H 6100 1250 50  0000 C CNN
	1    6100 1250
	1    0    0    -1  
$EndComp
$Comp
L R 4K7
U 1 1 5B0272DD
P 2950 2450
F 0 "4K7" V 3030 2450 50  0000 C CNN
F 1 "R" V 2950 2450 50  0000 C CNN
F 2 "" V 2880 2450 50  0000 C CNN
F 3 "" H 2950 2450 50  0000 C CNN
	1    2950 2450
	1    0    0    -1  
$EndComp
$Comp
L +5VA #PWR?
U 1 1 5B0273FA
P 2950 1700
F 0 "#PWR?" H 2950 1550 50  0001 C CNN
F 1 "+5VA" H 2950 1840 50  0000 C CNN
F 2 "" H 2950 1700 50  0000 C CNN
F 3 "" H 2950 1700 50  0000 C CNN
	1    2950 1700
	1    0    0    -1  
$EndComp
$Comp
L +5VA #PWR?
U 1 1 5B027418
P 2950 2300
F 0 "#PWR?" H 2950 2150 50  0001 C CNN
F 1 "+5VA" H 2950 2440 50  0000 C CNN
F 2 "" H 2950 2300 50  0000 C CNN
F 3 "" H 2950 2300 50  0000 C CNN
	1    2950 2300
	1    0    0    -1  
$EndComp
$Comp
L R 4K7
U 1 1 5B027481
P 2950 3500
F 0 "4K7" V 3030 3500 50  0000 C CNN
F 1 "R" V 2950 3500 50  0000 C CNN
F 2 "" V 2880 3500 50  0000 C CNN
F 3 "" H 2950 3500 50  0000 C CNN
	1    2950 3500
	1    0    0    -1  
$EndComp
$Comp
L R 4K7
U 1 1 5B0274C0
P 2950 2950
F 0 "4K7" V 3030 2950 50  0000 C CNN
F 1 "R" V 2950 2950 50  0000 C CNN
F 2 "" V 2880 2950 50  0000 C CNN
F 3 "" H 2950 2950 50  0000 C CNN
	1    2950 2950
	1    0    0    -1  
$EndComp
$Comp
L +5VA #PWR?
U 1 1 5B0273E3
P 4400 2750
F 0 "#PWR?" H 4400 2600 50  0001 C CNN
F 1 "+5VA" H 4400 2890 50  0000 C CNN
F 2 "" H 4400 2750 50  0000 C CNN
F 3 "" H 4400 2750 50  0000 C CNN
	1    4400 2750
	-1   0    0    1   
$EndComp
$Comp
L R 4K7
U 1 1 5B02743D
P 7450 2400
F 0 "4K7" V 7530 2400 50  0000 C CNN
F 1 "R" V 7450 2400 50  0000 C CNN
F 2 "" V 7380 2400 50  0000 C CNN
F 3 "" H 7450 2400 50  0000 C CNN
	1    7450 2400
	1    0    0    -1  
$EndComp
$Comp
L R 4k7
U 1 1 5B0274AC
P 7450 3000
F 0 "4k7" V 7530 3000 50  0000 C CNN
F 1 "R" V 7450 3000 50  0000 C CNN
F 2 "" V 7380 3000 50  0000 C CNN
F 3 "" H 7450 3000 50  0000 C CNN
	1    7450 3000
	1    0    0    -1  
$EndComp
$Comp
L R 4k7
U 1 1 5B027519
P 7450 3550
F 0 "4k7" V 7530 3550 50  0000 C CNN
F 1 "R" V 7450 3550 50  0000 C CNN
F 2 "" V 7380 3550 50  0000 C CNN
F 3 "" H 7450 3550 50  0000 C CNN
	1    7450 3550
	1    0    0    -1  
$EndComp
$Comp
L R 4k7
U 1 1 5B027590
P 7450 1850
F 0 "4k7" V 7530 1850 50  0000 C CNN
F 1 "R" V 7450 1850 50  0000 C CNN
F 2 "" V 7380 1850 50  0000 C CNN
F 3 "" H 7450 1850 50  0000 C CNN
	1    7450 1850
	1    0    0    -1  
$EndComp
$Comp
L +5VA #PWR?
U 1 1 5B02794A
P 2950 2800
F 0 "#PWR?" H 2950 2650 50  0001 C CNN
F 1 "+5VA" H 2950 2940 50  0000 C CNN
F 2 "" H 2950 2800 50  0000 C CNN
F 3 "" H 2950 2800 50  0000 C CNN
	1    2950 2800
	1    0    0    -1  
$EndComp
$Comp
L +5VA #PWR?
U 1 1 5B027974
P 2950 3350
F 0 "#PWR?" H 2950 3200 50  0001 C CNN
F 1 "+5VA" H 2950 3490 50  0000 C CNN
F 2 "" H 2950 3350 50  0000 C CNN
F 3 "" H 2950 3350 50  0000 C CNN
	1    2950 3350
	1    0    0    -1  
$EndComp
$Comp
L +5VA #PWR?
U 1 1 5B02799E
P 7450 2250
F 0 "#PWR?" H 7450 2100 50  0001 C CNN
F 1 "+5VA" H 7450 2390 50  0000 C CNN
F 2 "" H 7450 2250 50  0000 C CNN
F 3 "" H 7450 2250 50  0000 C CNN
	1    7450 2250
	1    0    0    -1  
$EndComp
$Comp
L +5VA #PWR?
U 1 1 5B0279C8
P 7450 2850
F 0 "#PWR?" H 7450 2700 50  0001 C CNN
F 1 "+5VA" H 7450 2990 50  0000 C CNN
F 2 "" H 7450 2850 50  0000 C CNN
F 3 "" H 7450 2850 50  0000 C CNN
	1    7450 2850
	1    0    0    -1  
$EndComp
$Comp
L +5VA #PWR?
U 1 1 5B0279F2
P 7450 3400
F 0 "#PWR?" H 7450 3250 50  0001 C CNN
F 1 "+5VA" H 7450 3540 50  0000 C CNN
F 2 "" H 7450 3400 50  0000 C CNN
F 3 "" H 7450 3400 50  0000 C CNN
	1    7450 3400
	1    0    0    -1  
$EndComp
$Comp
L +5VA #PWR?
U 1 1 5B027A48
P 7450 1700
F 0 "#PWR?" H 7450 1550 50  0001 C CNN
F 1 "+5VA" H 7450 1840 50  0000 C CNN
F 2 "" H 7450 1700 50  0000 C CNN
F 3 "" H 7450 1700 50  0000 C CNN
	1    7450 1700
	1    0    0    -1  
$EndComp
Text Label 3200 2000 0    60   ~ 0
A
Text Label 3200 2600 0    60   ~ 0
Left
Text Label 3200 3100 0    60   ~ 0
Down
Text Label 3200 3650 0    60   ~ 0
Up
Text Label 7050 2550 0    60   ~ 0
Select
Text Label 7150 3150 0    60   ~ 0
Start
Text Label 7200 3700 0    60   ~ 0
B
Text Label 6450 2500 0    60   ~ 0
Right
$Comp
L GND #PWR?
U 1 1 5B028909
P 6250 2750
F 0 "#PWR?" H 6250 2500 50  0001 C CNN
F 1 "GND" H 6250 2600 50  0000 C CNN
F 2 "" H 6250 2750 50  0000 C CNN
F 3 "" H 6250 2750 50  0000 C CNN
	1    6250 2750
	1    0    0    -1  
$EndComp
NoConn ~ 6250 2700
NoConn ~ 6250 2450
NoConn ~ 6250 2400
NoConn ~ 4400 2500
NoConn ~ 4400 2450
NoConn ~ 4400 2400
$Comp
L GND #PWR?
U 1 1 5B028187
P 2100 2000
F 0 "#PWR?" H 2100 1750 50  0001 C CNN
F 1 "GND" H 2100 1850 50  0000 C CNN
F 2 "" H 2100 2000 50  0001 C CNN
F 3 "" H 2100 2000 50  0001 C CNN
	1    2100 2000
	1    0    0    -1  
$EndComp
$Comp
L SW_Push SW?
U 1 1 5B028283
P 2400 2000
F 0 "SW?" H 2450 2100 50  0000 L CNN
F 1 "SW_Push" H 2400 1940 50  0000 C CNN
F 2 "" H 2400 2200 50  0001 C CNN
F 3 "" H 2400 2200 50  0001 C CNN
	1    2400 2000
	1    0    0    -1  
$EndComp
$Comp
L GND #PWR?
U 1 1 5B0284FE
P 2100 2600
F 0 "#PWR?" H 2100 2350 50  0001 C CNN
F 1 "GND" H 2100 2450 50  0000 C CNN
F 2 "" H 2100 2600 50  0001 C CNN
F 3 "" H 2100 2600 50  0001 C CNN
	1    2100 2600
	1    0    0    -1  
$EndComp
$Comp
L SW_Push SW?
U 1 1 5B028505
P 2400 2600
F 0 "SW?" H 2450 2700 50  0000 L CNN
F 1 "SW_Push" H 2400 2540 50  0000 C CNN
F 2 "" H 2400 2800 50  0001 C CNN
F 3 "" H 2400 2800 50  0001 C CNN
	1    2400 2600
	1    0    0    -1  
$EndComp
Wire Wire Line
	2600 2600 4400 2600
Wire Wire Line
	2600 3100 3500 3100
Wire Wire Line
	2600 3650 3550 3650
Wire Wire Line
	6250 2550 7700 2550
Wire Wire Line
	6250 2500 6950 2500
Wire Wire Line
	2600 2000 3500 2000
Wire Wire Line
	2200 2000 2100 2000
Wire Wire Line
	2200 2600 2100 2600
Connection ~ 2950 2600
Wire Wire Line
	4400 2650 3500 2650
Wire Wire Line
	3500 2650 3500 3100
$Comp
L GND #PWR?
U 1 1 5B0287CB
P 2100 3100
F 0 "#PWR?" H 2100 2850 50  0001 C CNN
F 1 "GND" H 2100 2950 50  0000 C CNN
F 2 "" H 2100 3100 50  0001 C CNN
F 3 "" H 2100 3100 50  0001 C CNN
	1    2100 3100
	1    0    0    -1  
$EndComp
$Comp
L SW_Push SW?
U 1 1 5B0287D1
P 2400 3100
F 0 "SW?" H 2450 3200 50  0000 L CNN
F 1 "SW_Push" H 2400 3040 50  0000 C CNN
F 2 "" H 2400 3300 50  0001 C CNN
F 3 "" H 2400 3300 50  0001 C CNN
	1    2400 3100
	1    0    0    -1  
$EndComp
Wire Wire Line
	2200 3100 2100 3100
Connection ~ 2950 3100
Wire Wire Line
	4400 2700 3550 2700
Wire Wire Line
	3550 2700 3550 3650
$Comp
L GND #PWR?
U 1 1 5B02898B
P 2100 3650
F 0 "#PWR?" H 2100 3400 50  0001 C CNN
F 1 "GND" H 2100 3500 50  0000 C CNN
F 2 "" H 2100 3650 50  0001 C CNN
F 3 "" H 2100 3650 50  0001 C CNN
	1    2100 3650
	1    0    0    -1  
$EndComp
$Comp
L SW_Push SW?
U 1 1 5B028991
P 2400 3650
F 0 "SW?" H 2450 3750 50  0000 L CNN
F 1 "SW_Push" H 2400 3590 50  0000 C CNN
F 2 "" H 2400 3850 50  0001 C CNN
F 3 "" H 2400 3850 50  0001 C CNN
	1    2400 3650
	1    0    0    -1  
$EndComp
Wire Wire Line
	2200 3650 2100 3650
Wire Wire Line
	4400 2550 3500 2550
Wire Wire Line
	3500 2550 3500 2000
Connection ~ 2950 2000
$Comp
L GND #PWR?
U 1 1 5B028E18
P 8200 2000
F 0 "#PWR?" H 8200 1750 50  0001 C CNN
F 1 "GND" H 8200 1850 50  0000 C CNN
F 2 "" H 8200 2000 50  0001 C CNN
F 3 "" H 8200 2000 50  0001 C CNN
	1    8200 2000
	1    0    0    -1  
$EndComp
$Comp
L SW_Push SW?
U 1 1 5B028E1E
P 7900 2000
F 0 "SW?" H 7950 2100 50  0000 L CNN
F 1 "SW_Push" H 7900 1940 50  0000 C CNN
F 2 "" H 7900 2200 50  0001 C CNN
F 3 "" H 7900 2200 50  0001 C CNN
	1    7900 2000
	1    0    0    -1  
$EndComp
Wire Wire Line
	6950 2000 7700 2000
Wire Wire Line
	8200 2000 8100 2000
Wire Wire Line
	6950 2500 6950 2000
$Comp
L GND #PWR?
U 1 1 5B029616
P 8200 2550
F 0 "#PWR?" H 8200 2300 50  0001 C CNN
F 1 "GND" H 8200 2400 50  0000 C CNN
F 2 "" H 8200 2550 50  0001 C CNN
F 3 "" H 8200 2550 50  0001 C CNN
	1    8200 2550
	1    0    0    -1  
$EndComp
$Comp
L SW_Push SW?
U 1 1 5B02961C
P 7900 2550
F 0 "SW?" H 7950 2650 50  0000 L CNN
F 1 "SW_Push" H 7900 2490 50  0000 C CNN
F 2 "" H 7900 2750 50  0001 C CNN
F 3 "" H 7900 2750 50  0001 C CNN
	1    7900 2550
	1    0    0    -1  
$EndComp
Wire Wire Line
	8200 2550 8100 2550
Connection ~ 7450 2550
Connection ~ 7450 2000
Wire Wire Line
	6950 3150 7700 3150
Wire Wire Line
	6950 3150 6950 2600
Wire Wire Line
	6950 2600 6250 2600
Wire Wire Line
	6900 3700 7700 3700
Wire Wire Line
	6900 3700 6900 2650
Wire Wire Line
	6900 2650 6250 2650
$Comp
L GND #PWR?
U 1 1 5B0299D5
P 8200 3150
F 0 "#PWR?" H 8200 2900 50  0001 C CNN
F 1 "GND" H 8200 3000 50  0000 C CNN
F 2 "" H 8200 3150 50  0001 C CNN
F 3 "" H 8200 3150 50  0001 C CNN
	1    8200 3150
	1    0    0    -1  
$EndComp
$Comp
L SW_Push SW?
U 1 1 5B0299DB
P 7900 3150
F 0 "SW?" H 7950 3250 50  0000 L CNN
F 1 "SW_Push" H 7900 3090 50  0000 C CNN
F 2 "" H 7900 3350 50  0001 C CNN
F 3 "" H 7900 3350 50  0001 C CNN
	1    7900 3150
	1    0    0    -1  
$EndComp
Wire Wire Line
	8200 3150 8100 3150
$Comp
L GND #PWR?
U 1 1 5B029A45
P 8200 3700
F 0 "#PWR?" H 8200 3450 50  0001 C CNN
F 1 "GND" H 8200 3550 50  0000 C CNN
F 2 "" H 8200 3700 50  0001 C CNN
F 3 "" H 8200 3700 50  0001 C CNN
	1    8200 3700
	1    0    0    -1  
$EndComp
$Comp
L SW_Push SW?
U 1 1 5B029A4B
P 7900 3700
F 0 "SW?" H 7950 3800 50  0000 L CNN
F 1 "SW_Push" H 7900 3640 50  0000 C CNN
F 2 "" H 7900 3900 50  0001 C CNN
F 3 "" H 7900 3900 50  0001 C CNN
	1    7900 3700
	1    0    0    -1  
$EndComp
Wire Wire Line
	8200 3700 8100 3700
Connection ~ 7450 3150
Connection ~ 7450 3700
$EndSCHEMATC
